cpu.vcd
$date
	Wed Mar  2 23:48:03 2022
$end
$version
	Icarus Verilog
$end
$timescale
	1ms
$end
$scope module cpu $end
$var wire 8 ! rdir_out [7:0] $end
$var wire 8 " pc_out [7:0] $end
$var wire 8 # pc_in [7:0] $end
$var wire 8 $ out [7:0] $end
$var wire 16 % ir_out [15:0] $end
$var wire 8 & add_2_out [7:0] $end
$var wire 8 ' add_1_out [7:0] $end
$var reg 1 ( clk $end
$var reg 16 ) ir_in [15:0] $end
$var reg 1 * ld_ir $end
$var reg 1 + ld_pc $end
$var reg 1 , ld_rdir $end
$var reg 1 - mux_1_pc $end
$var reg 8 . reg_out [7:0] $end
$var reg 1 / reset_pc_sel $end
$scope module ADD_1 $end
$var wire 8 0 in_a [7:0] $end
$var wire 8 1 in_b [7:0] $end
$var wire 8 2 out [7:0] $end
$upscope $end
$scope module ADD_2 $end
$var wire 8 3 in_a [7:0] $end
$var wire 8 4 out [7:0] $end
$var wire 8 5 in_b [7:0] $end
$upscope $end
$scope module IR $end
$var wire 1 ( clk $end
$var wire 16 6 in [15:0] $end
$var wire 1 * ld $end
$var reg 16 7 out [15:0] $end
$upscope $end
$scope module MUX_1 $end
$var wire 1 - sel $end
$var wire 8 8 out [7:0] $end
$var wire 8 9 in_b [7:0] $end
$var wire 8 : in_a [7:0] $end
$upscope $end
$scope module MUX_RESET_PC $end
$var wire 8 ; in_a [7:0] $end
$var wire 8 < in_b [7:0] $end
$var wire 1 / sel $end
$var wire 8 = out [7:0] $end
$upscope $end
$scope module PC $end
$var wire 1 ( clk $end
$var wire 8 > in [7:0] $end
$var wire 1 + ld $end
$var reg 8 ? out [7:0] $end
$upscope $end
$scope module RDIR $end
$var wire 1 ( clk $end
$var wire 8 @ in [7:0] $end
$var wire 1 , ld $end
$var reg 8 A out [7:0] $end
$upscope $end
$upscope $end
$enddefinitions $end
#0
$dumpvars
bx A
bx @
bx ?
b0 >
b0 =
b0 <
bx ;
bx :
bx 9
bx 8
bx 7
b1111111110101010 6
bx 5
bx 4
b1 3
bx 2
bx 1
b101 0
1/
b101 .
0-
0,
1+
1*
b1111111110101010 )
0(
bx '
bx &
bx %
bx $
b0 #
bx "
bx !
$end
#500
b10101111 '
b10101111 2
b10101111 @
b10101010 1
b1 &
b1 4
b1 ;
b0 $
b0 5
b0 8
b1111111110101010 %
b1111111110101010 7
b0 "
b0 :
b0 ?
1(
#1000
b1 #
b1 =
b1 >
0(
0/
1,
0*
#1500
b10 #
b10 =
b10 >
b10 &
b10 4
b10 ;
b1 $
b1 5
b1 8
b1 "
b1 :
b1 ?
b10101111 !
b10101111 9
b10101111 A
1(
#2000
0(
#2500
b11 #
b11 =
b11 >
b11 &
b11 4
b11 ;
b10 $
b10 5
b10 8
b10 "
b10 :
b10 ?
1(
#3000
b10110000 #
b10110000 =
b10110000 >
b10110000 &
b10110000 4
b10110000 ;
b10101111 $
b10101111 5
b10101111 8
0(
1-
#3500
b10110000 "
b10110000 :
b10110000 ?
1(
#4000
b10110001 #
b10110001 =
b10110001 >
b10110001 &
b10110001 4
b10110001 ;
b10110000 $
b10110000 5
b10110000 8
0(
0-
#4500
b10110010 #
b10110010 =
b10110010 >
b10110010 &
b10110010 4
b10110010 ;
b10110001 $
b10110001 5
b10110001 8
b10110001 "
b10110001 :
b10110001 ?
1(
#5000
0(
#5500
b10110011 #
b10110011 =
b10110011 >
b10110011 &
b10110011 4
b10110011 ;
b10110010 $
b10110010 5
b10110010 8
b10110010 "
b10110010 :
b10110010 ?
1(
#6000
0(
#6500
b10110100 #
b10110100 =
b10110100 >
b10110100 &
b10110100 4
b10110100 ;
b10110011 $
b10110011 5
b10110011 8
b10110011 "
b10110011 :
b10110011 ?
1(
#7000
0(
#7500
b10110101 #
b10110101 =
b10110101 >
b10110101 &
b10110101 4
b10110101 ;
b10110100 $
b10110100 5
b10110100 8
b10110100 "
b10110100 :
b10110100 ?
1(
#8000
0(
#8500
b10110110 #
b10110110 =
b10110110 >
b10110110 &
b10110110 4
b10110110 ;
b10110101 $
b10110101 5
b10110101 8
b10110101 "
b10110101 :
b10110101 ?
1(
#9000
b0 #
b0 =
b0 >
0(
1/
#9500
b1 &
b1 4
b1 ;
b0 $
b0 5
b0 8
b0 "
b0 :
b0 ?
1(
#10000
b1 #
b1 =
b1 >
0(
0/
#10500
b10 #
b10 =
b10 >
b10 &
b10 4
b10 ;
b1 $
b1 5
b1 8
b1 "
b1 :
b1 ?
1(
#11000
0(
#11500
b11 #
b11 =
b11 >
b11 &
b11 4
b11 ;
b10 $
b10 5
b10 8
b10 "
b10 :
b10 ?
1(
#12000
0(
#12500
b100 #
b100 =
b100 >
b100 &
b100 4
b100 ;
b11 $
b11 5
b11 8
b11 "
b11 :
b11 ?
1(
#13000
0(
#13500
b101 #
b101 =
b101 >
b101 &
b101 4
b101 ;
b100 $
b100 5
b100 8
b100 "
b100 :
b100 ?
1(
#14000
0(
#14500
b110 #
b110 =
b110 >
b110 &
b110 4
b110 ;
b101 $
b101 5
b101 8
b101 "
b101 :
b101 ?
1(
#15000
0(
#15500
b111 #
b111 =
b111 >
b111 &
b111 4
b111 ;
b110 $
b110 5
b110 8
b110 "
b110 :
b110 ?
1(
#16000
0(
#16500
b1000 #
b1000 =
b1000 >
b1000 &
b1000 4
b1000 ;
b111 $
b111 5
b111 8
b111 "
b111 :
b111 ?
1(
#17000
0(
#17500
b1001 #
b1001 =
b1001 >
b1001 &
b1001 4
b1001 ;
b1000 $
b1000 5
b1000 8
b1000 "
b1000 :
b1000 ?
1(
#18000
0(
#18500
b1010 #
b1010 =
b1010 >
b1010 &
b1010 4
b1010 ;
b1001 $
b1001 5
b1001 8
b1001 "
b1001 :
b1001 ?
1(
#19000
0(
#19500
b1011 #
b1011 =
b1011 >
b1011 &
b1011 4
b1011 ;
b1010 $
b1010 5
b1010 8
b1010 "
b1010 :
b1010 ?
1(
