modules/tb/ram_tb.vcd
$date
	Sat Mar  5 19:44:50 2022
$end
$version
	Icarus Verilog
$end
$timescale
	1ms
$end
$scope module ram_tb $end
$var wire 8 ! ram_out [7:0] $end
$var reg 1 " clk $end
$var reg 5 # ram_addr [4:0] $end
$var reg 8 $ ram_in [7:0] $end
$var reg 1 % ram_w $end
$var integer 32 & i [31:0] $end
$scope module RAM_1 $end
$var wire 5 ' addr [4:0] $end
$var wire 1 " clk $end
$var wire 8 ( data_in [7:0] $end
$var wire 1 % w $end
$var reg 8 ) data_out [7:0] $end
$upscope $end
$upscope $end
$enddefinitions $end
#0
$dumpvars
bx )
b0 (
b0 '
bx &
1%
b0 $
b0 #
0"
bx !
$end
#500
b10101010 !
b10101010 )
1"
#1000
0"
b0 &
0%
#1500
b0 !
b0 )
1"
#2000
0"
b1 #
b1 '
b1 &
#2500
b10010 !
b10010 )
1"
#3000
0"
b10 #
b10 '
b10 &
#3500
b100011 !
b100011 )
1"
#4000
0"
b11 #
b11 '
b11 &
#4500
b110100 !
b110100 )
1"
#5000
0"
b100 #
b100 '
b100 &
#5500
b1000101 !
b1000101 )
1"
#6000
0"
b101 #
b101 '
b101 &
#6500
b1010110 !
b1010110 )
1"
#7000
0"
b110 #
b110 '
b110 &
#7500
b10100000 !
b10100000 )
1"
#8000
0"
b111 #
b111 '
b111 &
#8500
b11111111 !
b11111111 )
1"
#9000
0"
b1000 #
b1000 '
b1000 &
#9500
b11111110 !
b11111110 )
1"
#10000
0"
b1001 #
b1001 '
b1001 &
#10500
b10000 !
b10000 )
1"
#11000
0"
b1010 #
b1010 '
b1010 &
#11500
bx !
bx )
1"
#12000
0"
b1011 #
b1011 '
b1011 &
#12500
1"
#13000
0"
b1100 #
b1100 '
b1100 &
#13500
1"
#14000
0"
b1101 #
b1101 '
b1101 &
#14500
1"
#15000
0"
b1110 #
b1110 '
b1110 &
#15500
1"
#16000
0"
b1111 #
b1111 '
b1111 &
#16500
1"
#17000
0"
b10000 #
b10000 '
b10000 &
#17500
1"
#18000
0"
b10001 #
b10001 '
b10001 &
#18500
1"
#19000
0"
b10010 #
b10010 '
b10010 &
#19500
1"
#20000
0"
b10011 #
b10011 '
b10011 &
#20500
1"
#21000
0"
b10100 #
b10100 '
b10100 &
#21500
1"
#22000
0"
b10101 #
b10101 '
b10101 &
#22500
1"
#23000
0"
b10110 #
b10110 '
b10110 &
#23500
1"
#24000
0"
b10111 #
b10111 '
b10111 &
#24500
1"
#25000
0"
b11000 #
b11000 '
b11000 &
#25500
1"
#26000
0"
b11001 #
b11001 '
b11001 &
#26500
1"
#27000
0"
b11010 #
b11010 '
b11010 &
#27500
1"
#28000
0"
b11011 #
b11011 '
b11011 &
#28500
1"
#29000
0"
b11100 #
b11100 '
b11100 &
#29500
1"
#30000
0"
b11101 #
b11101 '
b11101 &
#30500
1"
#31000
0"
b11110 #
b11110 '
b11110 &
#31500
1"
#32000
0"
b11111 #
b11111 '
b11111 &
#32500
1"
#33000
0"
b100000 &
